Language,original,english,czech,german,russian,polish,hungarian,italian,spanish,french,chinese,japanese,portuguese,chinesesimp
STR_IDZ_ACTIVATE_RECOGNITION,Activate Recognition,Activate Recognition,Activate Recognition,Activate Recognition,Активировать распознавание,Activate Recognition,Activate Recognition,Activate Recognition,Activate Recognition,Activate Recognition,Activate Recognition,Activate Recognition,Activate Recognition,Activate Recognition
STR_IDZ_SHOW_NAME,Show Name to Everyone,Show Name to Everyone,Show Name to Everyone,Show Name to Everyone,Показать всем своё имя,Show Name to Everyone,Show Name to Everyone,Show Name to Everyone,Show Name to Everyone,Show Name to Everyone,Show Name to Everyone,Show Name to Everyone,Show Name to Everyone,Show Name to Everyone
STR_IDZ_Title,DZR IdentityZ,DZR IdentityZ,DZR IdentityZ,DZR IdentityZ,DZR IdentityZ,DZR IdentityZ,DZR IdentityZ,DZR IdentityZ,DZR IdentityZ,DZR IdentityZ,DZR IdentityZ,DZR IdentityZ,DZR IdentityZ,DZR IdentityZ
STR_IDZ_Overview,"Recognition of character names depending on face visibility and distance.","Recognition of character names depending on face visibility and distance.","Recognition of character names depending on face visibility and distance.","Recognition of character names depending on face visibility and distance.","Распознавание имени игрока в зависимости от видимости лица и дистанции.","Recognition of character names depending on face visibility and distance.","Recognition of character names depending on face visibility and distance.","Recognition of character names depending on face visibility and distance.","Recognition of character names depending on face visibility and distance.","Recognition of character names depending on face visibility and distance.","Recognition of character names depending on face visibility and distance.","Recognition of character names depending on face visibility and distance.","Recognition of character names depending on face visibility and distance.","Recognition of character names depending on face visibility and distance."
STR_IDZ_Tooltip,"Player name recognition.","Player name recognition.","Player name recognition.","Player name recognition.","Распознавание имени игрока.","Player name recognition.","Player name recognition.","Player name recognition.","Player name recognition.","Player name recognition.","Player name recognition.","Player name recognition.","Player name recognition.","Player name recognition."
"DayzRussia", "DayZ Russia", "DayZ Russia", "DayZ Russia", "DayZ Russia", "DayZ Russia", "DayZ Russia", "DayZ Russia", "DayZ Russia", "DayZ Russia", "DayZ Russia", "DayZ Russia", "DayZ Russia", "DayZ Russia", "DayZ Russia",